{
  "formatVersion": 1,
  "database": {
    "version": 1,
    "identityHash": "6b29cc993d296bfb42c66cde3fab4f1d",
    "entities": [
      {
        "tableName": "WeatherData",
        "createSql": "CREATE TABLE IF NOT EXISTS `${TABLE_NAME}` (`id` INTEGER NOT NULL, `dt` INTEGER, `country` TEXT, `temp` REAL NOT NULL, `pressure` REAL NOT NULL, `humidity` REAL NOT NULL, `tempMin` REAL NOT NULL, `tempMax` REAL NOT NULL, `name` TEXT, `cod` INTEGER NOT NULL, `lon` REAL, `lat` REAL, `speed` REAL, `deg` REAL, `main` TEXT, `description` TEXT, `icon` TEXT, PRIMARY KEY(`id`))",
        "fields": [
          {
            "fieldPath": "id",
            "columnName": "id",
            "affinity": "INTEGER",
            "notNull": true
          },
          {
            "fieldPath": "dt",
            "columnName": "dt",
            "affinity": "INTEGER",
            "notNull": false
          },
          {
            "fieldPath": "country",
            "columnName": "country",
            "affinity": "TEXT",
            "notNull": false
          },
          {
            "fieldPath": "temp",
            "columnName": "temp",
            "affinity": "REAL",
            "notNull": true
          },
          {
            "fieldPath": "pressure",
            "columnName": "pressure",
            "affinity": "REAL",
            "notNull": true
          },
          {
            "fieldPath": "humidity",
            "columnName": "humidity",
            "affinity": "REAL",
            "notNull": true
          },
          {
            "fieldPath": "tempMin",
            "columnName": "tempMin",
            "affinity": "REAL",
            "notNull": true
          },
          {
            "fieldPath": "tempMax",
            "columnName": "tempMax",
            "affinity": "REAL",
            "notNull": true
          },
          {
            "fieldPath": "name",
            "columnName": "name",
            "affinity": "TEXT",
            "notNull": false
          },
          {
            "fieldPath": "cod",
            "columnName": "cod",
            "affinity": "INTEGER",
            "notNull": true
          },
          {
            "fieldPath": "coord.lon",
            "columnName": "lon",
            "affinity": "REAL",
            "notNull": false
          },
          {
            "fieldPath": "coord.lat",
            "columnName": "lat",
            "affinity": "REAL",
            "notNull": false
          },
          {
            "fieldPath": "wind.speed",
            "columnName": "speed",
            "affinity": "REAL",
            "notNull": false
          },
          {
            "fieldPath": "wind.deg",
            "columnName": "deg",
            "affinity": "REAL",
            "notNull": false
          },
          {
            "fieldPath": "weather.main",
            "columnName": "main",
            "affinity": "TEXT",
            "notNull": false
          },
          {
            "fieldPath": "weather.description",
            "columnName": "description",
            "affinity": "TEXT",
            "notNull": false
          },
          {
            "fieldPath": "weather.icon",
            "columnName": "icon",
            "affinity": "TEXT",
            "notNull": false
          }
        ],
        "primaryKey": {
          "columnNames": [
            "id"
          ],
          "autoGenerate": false
        },
        "indices": [],
        "foreignKeys": []
      }
    ],
    "views": [],
    "setupQueries": [
      "CREATE TABLE IF NOT EXISTS room_master_table (id INTEGER PRIMARY KEY,identity_hash TEXT)",
      "INSERT OR REPLACE INTO room_master_table (id,identity_hash) VALUES(42, \"6b29cc993d296bfb42c66cde3fab4f1d\")"
    ]
  }
}